<?xml version="1.0" standalone="no"?>
<!DOCTYPE svg PUBLIC "-//W3C//DTD SVG 1.1//EN" "http://www.w3.org/Graphics/SVG/1.1/DTD/svg11.dtd" >
<svg xmlns="http://www.w3.org/2000/svg">
<metadata>Generated by IcoMoon</metadata>
<defs>
<font id="icomoon" horiz-adv-x="1024">
<font-face units-per-em="1024" ascent="960" descent="-64" />
<missing-glyph horiz-adv-x="1024" />
<glyph unicode="&#x20;" horiz-adv-x="512" d="" />
<glyph unicode="&#xe900;" glyph-name="at-arroba" d="M712.704 220.672c-31.744 0-58.368 8.192-77.824 23.552-20.48 15.36-32.768 38.912-37.888 70.656-23.552-32.768-50.176-57.344-77.824-71.68s-58.368-21.504-90.112-21.504c-24.576 0-46.080 4.096-64.512 12.288s-32.768 20.48-45.056 34.816c-12.288 15.36-21.504 32.768-26.624 53.248-6.144 20.48-9.216 43.008-9.216 66.56 0 34.816 7.168 69.632 20.48 105.472s32.768 67.584 59.392 96.256c26.624 28.672 59.392 52.224 98.304 69.632 38.912 18.432 84.992 26.624 136.192 26.624 27.648 0 51.2-2.048 72.704-6.144 20.48-4.096 39.936-10.24 58.368-18.432l-57.344-222.208c-8.192-30.72-11.264-56.32-11.264-76.8 0-14.336 2.048-26.624 5.12-36.864 4.096-9.216 9.216-17.408 15.36-22.528s13.312-9.216 22.528-11.264c8.192-2.048 17.408-3.072 26.624-3.072 20.48 0 38.912 6.144 57.344 17.408s33.792 27.648 48.128 49.152c13.312 20.48 24.576 46.080 32.768 75.776s12.288 61.44 12.288 97.28c0 56.32-9.216 106.496-27.648 149.504s-43.008 78.848-74.752 106.496c-31.744 28.672-69.632 50.176-112.64 64.512-46.080 13.312-93.184 20.48-143.36 20.48-55.296 0-106.496-10.24-154.624-31.744-48.128-20.48-90.112-50.176-125.952-87.040s-63.488-80.896-83.968-131.072c-20.48-50.176-30.72-105.472-30.72-164.864 0-69.632 11.264-131.072 32.768-184.32s52.224-97.28 90.112-133.12c37.888-35.84 82.944-62.464 134.144-80.896s106.496-26.624 164.864-26.624c62.464 0 117.76 7.168 165.888 20.48s89.088 30.72 123.904 52.224c6.144 4.096 11.264 5.12 16.384 5.12 8.192 0 15.36-5.12 19.456-14.336l15.36-40.96c-44.032-29.696-94.208-53.248-149.504-69.632-56.32-16.384-119.808-25.6-190.464-25.6s-137.216 11.264-198.656 33.792c-61.44 22.528-114.688 55.296-159.744 97.28-45.056 43.008-79.872 94.208-105.472 156.672-25.6 61.44-38.912 131.072-38.912 209.92 0 45.056 6.144 88.064 17.408 129.024 11.264 41.984 27.648 79.872 48.128 115.712s45.056 68.608 73.728 98.304c28.672 29.696 60.416 55.296 96.256 76.8 34.816 21.504 73.728 37.888 113.664 49.152 40.96 11.264 82.944 17.408 128 17.408 37.888 0 74.752-4.096 110.592-12.288s70.656-20.48 102.4-35.84c31.744-16.384 61.44-35.84 89.088-59.392 26.624-23.552 50.176-51.2 69.632-80.896 19.456-30.72 34.816-64.512 46.080-102.4s16.384-78.848 16.384-121.856c0-44.032-6.144-84.992-18.432-122.88s-29.696-69.632-52.224-97.28c-21.504-27.648-48.128-49.152-77.824-64.512-30.72-16.384-63.488-23.552-97.28-23.552zM449.536 294.4c12.288 0 25.6 2.048 38.912 6.144s25.6 11.264 37.888 21.504c12.288 10.24 23.552 24.576 32.768 41.984 10.24 17.408 18.432 39.936 25.6 66.56l47.104 181.248c-16.384 4.096-33.792 5.12-52.224 5.12-30.72 0-59.392-6.144-84.992-19.456s-48.128-29.696-66.56-51.2c-18.432-20.48-32.768-45.056-43.008-71.68s-15.36-55.296-15.36-82.944c0-29.696 7.168-53.248 20.48-70.656s32.768-26.624 59.392-26.624z" />
<glyph unicode="&#xe902;" glyph-name="at-candado" d="M842.752 551.424h-48.128v120.832c0 151.552-122.88 274.432-274.432 274.432s-274.432-122.88-274.432-274.432v-119.808h-48.128c-15.36 0-28.672-12.288-28.672-28.672v-533.504c0-15.36 12.288-28.672 28.672-28.672h647.168c15.36 0 28.672 12.288 28.672 28.672v532.48c-2.048 16.384-14.336 28.672-30.72 28.672v0zM564.224 226.816v-113.664c0-10.24-8.192-18.432-18.432-18.432h-53.248c-10.24 0-18.432 8.192-18.432 18.432v113.664c-19.456 14.336-32.768 36.864-32.768 62.464 0 41.984 34.816 76.8 76.8 76.8s76.8-34.816 76.8-76.8c1.024-25.6-11.264-48.128-30.72-62.464v0zM663.552 551.424h-287.744v120.832c0 78.848 64.512 143.36 143.36 143.36s143.36-64.512 143.36-143.36v-120.832z" />
<glyph unicode="&#xe903;" glyph-name="at-llave" d="M514.048 946.688c-272.384 0-492.544-220.16-492.544-492.544s220.16-492.544 492.544-492.544c272.384 0 492.544 220.16 492.544 492.544s-221.184 492.544-492.544 492.544v0zM651.264 219.648v0c0-53.248-61.44-96.256-138.24-96.256-75.776 0-138.24 43.008-138.24 96.256 0 10.24 76.8 314.368 76.8 314.368-41.984 22.528-71.68 66.56-71.68 117.76 0 73.728 59.392 133.12 133.12 133.12s133.12-59.392 133.12-133.12c0-51.2-28.672-95.232-71.68-117.76 0 0 75.776-303.104 75.776-311.296l1.024-3.072z" />
</font></defs></svg>